<?xml version="1.0" encoding="UTF-8"?>
<svg viewBox="0 0 20 12" version="1.1" xmlns="http://www.w3.org/2000/svg" xmlns:xlink="http://www.w3.org/1999/xlink">
    <!-- Generator: Sketch 52.1 (67048) - http://www.bohemiancoding.com/sketch -->
    <title>eye-crossed</title>
    <desc>Created with Sketch.</desc>
    <defs>
        <path d="M4.12902495,10.8709751 L14.3538523,0.646147652" id="path-1"></path>
        <filter x="-25.3%" y="-16.1%" width="145.9%" height="145.9%" filterUnits="objectBoundingBox" id="filter-2">
            <feMorphology radius="1" operator="dilate" in="SourceAlpha" result="shadowSpreadOuter1"></feMorphology>
            <feOffset dx="0" dy="0.5" in="shadowSpreadOuter1" result="shadowOffsetOuter1"></feOffset>
            <feMorphology radius="1.5" operator="erode" in="SourceAlpha" result="shadowInner"></feMorphology>
            <feOffset dx="0" dy="0.5" in="shadowInner" result="shadowInner"></feOffset>
            <feComposite in="shadowOffsetOuter1" in2="shadowInner" operator="out" result="shadowOffsetOuter1"></feComposite>
            <feGaussianBlur stdDeviation="0.25" in="shadowOffsetOuter1" result="shadowBlurOuter1"></feGaussianBlur>
            <feColorMatrix values="0 0 0 0 0   0 0 0 0 0   0 0 0 0 0  0 0 0 0.5 0" type="matrix" in="shadowBlurOuter1"></feColorMatrix>
        </filter>
    </defs>
    <g id="Symbols" stroke="none" stroke-width="1" fill="none" fill-rule="evenodd">
        <g id="icon/white/eye-crossed" transform="translate(0.000000, -3.000000)">
            <g id="eye-crossed">
                <rect id="Rectangle" x="0" y="0" width="20" height="20"></rect>
                <g id="view-1" transform="translate(1.000000, 4.000000)">
                    <path d="M9,0.93825 C5.97675,0.88725 2.85,3 0.88425,5.16375 C0.456887487,5.63820206 0.456887487,6.35879794 0.88425,6.83325 C2.80725,8.95125 5.925,11.11275 9,11.061 C12.075,11.11275 15.1935,8.95125 17.118,6.83325 C17.5453625,6.35879794 17.5453625,5.63820206 17.118,5.16375 C15.15,3 12.02325,0.88725 9,0.93825 Z" id="Shape" stroke="#FFFFFF" stroke-width="1.5" stroke-linecap="round" stroke-linejoin="round"></path>
                    <path d="M8.99950013,8.81174996 C7.44629694,8.81147385 6.18736209,7.55220328 6.18750011,5.99900007 C6.18763814,4.44579686 7.44679678,3.18675006 9,3.18675 C9.74611237,3.18655088 10.4617121,3.48290602 10.9892229,4.01055748 C11.5167337,4.53820895 11.8128981,5.25388771 11.8125,6 C11.8120858,7.55320316 10.5527033,8.81202606 8.99950013,8.81174996 Z" id="Shape" stroke="#FFFFFF" stroke-width="1.5" stroke-linecap="round" stroke-linejoin="round"></path>
                    <g id="Line" stroke-linecap="square">
                        <use fill="black" fill-opacity="1" filter="url(#filter-2)" xlink:href="#path-1"></use>
                        <use stroke="#FFFFFF" stroke-width="1" xlink:href="#path-1"></use>
                    </g>
                </g>
            </g>
        </g>
    </g>
</svg>