<?xml version="1.0" encoding="UTF-8"?>
<svg width="20px" height="20px" viewBox="0 0 20 20" version="1.1" xmlns="http://www.w3.org/2000/svg" xmlns:xlink="http://www.w3.org/1999/xlink">
    <!-- Generator: Sketch 52.4 (67378) - http://www.bohemiancoding.com/sketch -->
    <title>icon/dark/lan</title>
    <desc>Created with Sketch.</desc>
    <g id="icon/dark/lan" stroke="none" stroke-width="1" fill="none" fill-rule="evenodd" stroke-linecap="round" stroke-linejoin="round">
        <rect id="Rectangle-path" stroke="#4A4A4A" stroke-width="1.5" x="1.5625" y="1.5625" width="16.875" height="16.875" rx="3"></rect>
        <path d="M14.5,5.5 L5.5,5.5 C4.87867966,5.5 4.375,6.00367966 4.375,6.625 L4.375,11.125 C4.375,11.7463203 4.87867966,12.25 5.5,12.25 L7.75,12.25 L7.75,13.375 C7.75,13.9963203 8.25367966,14.5 8.875,14.5 L11.125,14.5 C11.7463203,14.5 12.25,13.9963203 12.25,13.375 L12.25,12.25 L14.5,12.25 C15.1213203,12.25 15.625,11.7463203 15.625,11.125 L15.625,6.625 C15.625,6.00367966 15.1213203,5.5 14.5,5.5 Z" id="Shape" stroke="#4A4A4A" stroke-width="1.5"></path>
        <path d="M10,5.5 L10,8.3125" id="Shape" stroke="#4A4A4A" stroke-width="1.5"></path>
        <path d="M7.1875,5.5 L7.1875,8.3125" id="Shape" stroke="#4A4A4A" stroke-width="1.5"></path>
        <path d="M12.8125,5.5 L12.8125,8.3125" id="Shape" stroke="#4A4A4A" stroke-width="1.5"></path>
    </g>
</svg>