<?xml version="1.0" encoding="UTF-8"?>
<svg width="20px" height="20px" viewBox="0 0 20 20" version="1.1" xmlns="http://www.w3.org/2000/svg" xmlns:xlink="http://www.w3.org/1999/xlink">
    <!-- Generator: Sketch 52.2 (67145) - http://www.bohemiancoding.com/sketch -->
    <title>icon/grey/load</title>
    <desc>Created with Sketch.</desc>
    <g id="icon/grey/load" stroke="none" stroke-width="1" fill="none" fill-rule="evenodd" stroke-linecap="round" stroke-linejoin="round">
        <g id="loading" transform="translate(2.000000, 2.000000)" stroke="#9B9B9B" stroke-width="1.5">
            <path d="M8,0.498 L8,2.998" id="Path"></path>
            <path d="M8,15.498 L8,12.998" id="Path"></path>
            <path d="M2.69666667,2.69466667 L4.46466667,4.46266667" id="Path"></path>
            <path d="M13.3033333,13.3013333 L11.5353333,11.534" id="Path"></path>
            <path d="M0.5,7.998 L3,7.998" id="Path"></path>
            <path d="M15.5,7.998 L13,7.998" id="Path"></path>
            <path d="M2.69666667,13.3013333 L4.46466667,11.534" id="Path"></path>
            <path d="M13.3033333,2.69466667 L11.5353333,4.46266667" id="Path"></path>
        </g>
    </g>
</svg>