<svg aria-hidden="true" style="position: absolute; width: 0; height: 0; overflow: hidden;" version="1.1" xmlns="http://www.w3.org/2000/svg" xmlns:xlink="http://www.w3.org/1999/xlink">
<defs>
<symbol id="icon-widgets" viewBox="0 0 32 32">
<path d="M29.023 23.497h-3.478v-3.501c0-0.553-0.447-1.003-0.997-1.003s-0.996 0.45-0.996 1.003v3.501h-3.478c-0.55 0-0.997 0.449-0.997 1.003s0.447 1.003 0.997 1.003h3.478v3.501c0 0.553 0.446 1.003 0.996 1.003s0.997-0.45 0.997-1.003v-3.501h3.478c0.55 0 0.996-0.45 0.996-1.003 0.001-0.554-0.446-1.003-0.996-1.003z"></path>
<path d="M11.478 32h-8.055c-2.511 0-3.423-2.091-3.423-3.497v-8.007c0-2.565 2.047-3.496 3.423-3.496h8.055c2.512 0 3.424 2.091 3.424 3.496v8.007c0 2.565-2.048 3.497-3.424 3.497zM3.423 18.68c-0.413 0.007-1.779 0.156-1.779 1.816v8.007c0.007 0.422 0.153 1.817 1.779 1.817h8.052c0.302-0.005 1.783-0.117 1.783-1.817v-8.007c-0.008-0.422-0.153-1.816-1.78-1.816h-8.055z"></path>
<path d="M11.478 15h-8.055c-2.511 0-3.423-2.091-3.423-3.497v-8.007c0-2.565 2.047-3.496 3.423-3.496h8.055c2.512 0 3.424 2.091 3.424 3.496v8.007c0 2.565-2.048 3.497-3.424 3.497zM3.423 1.68c-0.413 0.007-1.779 0.156-1.779 1.816v8.007c0.007 0.422 0.153 1.817 1.779 1.817h8.052c0.302-0.005 1.783-0.117 1.783-1.817v-8.007c-0.008-0.422-0.153-1.816-1.78-1.816h-8.055z"></path>
<path d="M28.577 15h-8.057c-2.51 0-3.422-2.091-3.422-3.497v-8.007c0.001-2.565 2.047-3.496 3.423-3.496h8.057c2.51 0 3.422 2.091 3.422 3.496v8.007c0 2.565-2.047 3.497-3.423 3.497zM20.521 1.68c-0.411 0.007-1.779 0.156-1.779 1.816v8.007c0.008 0.422 0.153 1.817 1.779 1.817h8.053c0.302-0.005 1.784-0.117 1.784-1.817v-8.007c-0.009-0.422-0.154-1.816-1.78-1.816h-8.057z"></path>
</symbol>
<symbol id="icon-sources" viewBox="0 0 32 32">
<path d="M31.131 1.902c-0.659-0.753-1.61-1.185-2.61-1.185-0.848 0-1.666 0.312-2.302 0.877-0.697 0.62-1.112 1.475-1.171 2.409-0.035 0.572 0.081 1.126 0.308 1.636l-6.246 4.923c-0.895-0.787-2.080-1.242-3.343-1.167-1.010 0.059-1.944 0.449-2.708 1.089l-4.35-3.674c1.129-2.033 0.625-4.64-1.285-6.055-0.807-0.596-1.76-0.912-2.759-0.912-1.477 0-2.881 0.714-3.757 1.91-0.738 1.009-1.041 2.247-0.854 3.485s0.843 2.33 1.846 3.073c0.806 0.597 1.76 0.912 2.759 0.912 1.098 0 2.154-0.396 2.983-1.089l4.324 3.652c-0.44 0.78-0.655 1.67-0.602 2.586 0.021 0.354 0.088 0.694 0.183 1.022l-2.576 1.265c-0.644-0.764-1.593-1.223-2.61-1.223-0.585 0-1.167 0.154-1.68 0.444-1.646 0.933-2.233 3.041-1.306 4.699 0.606 1.085 1.752 1.759 2.991 1.759 0.585 0 1.165-0.153 1.678-0.443 1.33-0.754 1.952-2.271 1.661-3.702l2.592-1.272c0.443 0.594 1.027 1.064 1.693 1.394l-1.476 4.837c-0.177-0.022-0.354-0.034-0.53-0.034-2.007 0-3.739 1.372-4.21 3.337-0.273 1.133-0.092 2.304 0.51 3.3s1.555 1.695 2.681 1.97c0.337 0.082 0.682 0.123 1.025 0.123 2.007 0 3.739-1.371 4.213-3.336 0.273-1.133 0.091-2.304-0.512-3.299-0.392-0.646-0.939-1.15-1.576-1.512l1.504-4.932c0.139 0.014 0.273 0.041 0.415 0.041 0.091 0 0.184-0.002 0.275-0.008 0.706-0.041 1.371-0.252 1.973-0.585l2.865 3.478c-0.35 0.501-0.552 1.092-0.573 1.719-0.030 0.855 0.273 1.672 0.853 2.295 0.6 0.647 1.447 1.020 2.327 1.020 0.807 0 1.576-0.306 2.17-0.861 0.62-0.582 0.979-1.373 1.009-2.227 0.031-0.855-0.272-1.672-0.852-2.296-0.906-0.983-2.41-1.222-3.614-0.713l-2.87-3.485c0.785-0.927 1.186-2.1 1.114-3.319-0.039-0.697-0.242-1.346-0.554-1.928l6.238-4.915c0.604 0.472 1.35 0.742 2.129 0.742 0.85 0 1.667-0.312 2.305-0.878 0.695-0.62 1.111-1.475 1.168-2.409 0.057-0.937-0.251-1.837-0.866-2.538zM7.214 20.41c-0.811 0.463-1.914 0.143-2.365-0.665-0.469-0.841-0.172-1.909 0.662-2.382 0.261-0.147 0.555-0.227 0.851-0.227 0.629 0 1.209 0.343 1.517 0.894 0.468 0.84 0.169 1.908-0.665 2.38zM14.559 28.108c-0.339 1.404-1.79 2.301-3.196 1.96-0.687-0.166-1.267-0.594-1.635-1.201-0.367-0.607-0.478-1.322-0.311-2.014 0.288-1.198 1.344-2.035 2.567-2.035 0.209 0 0.42 0.025 0.627 0.076 0.687 0.168 1.268 0.594 1.636 1.201 0.367 0.608 0.478 1.323 0.312 2.013zM4.659 7.521c-0.635 0-1.243-0.201-1.756-0.581-0.639-0.474-1.057-1.169-1.177-1.958-0.119-0.789 0.074-1.578 0.545-2.22 0.557-0.762 1.453-1.217 2.394-1.217 0.635 0 1.242 0.202 1.755 0.581 1.317 0.976 1.601 2.85 0.631 4.178-0.565 0.774-1.436 1.217-2.392 1.217zM16.21 17.102c-1.652 0.12-3.063-1.181-3.157-2.829-0.046-0.802 0.221-1.574 0.751-2.174 0.531-0.6 1.263-0.957 2.061-1.003 0.059-0.004 0.119-0.005 0.177-0.005 1.58 0 2.889 1.245 2.98 2.834 0.047 0.801-0.22 1.574-0.751 2.174s-1.263 0.958-2.061 1.003zM24.844 22.504c0.271 0.291 0.412 0.673 0.398 1.074-0.015 0.399-0.183 0.77-0.473 1.043-0.585 0.547-1.562 0.512-2.106-0.074-0.272-0.293-0.414-0.675-0.399-1.074 0.014-0.4 0.181-0.771 0.471-1.043 0.279-0.261 0.642-0.404 1.020-0.404 0.417-0.001 0.804 0.168 1.089 0.478zM29.708 5.572c-0.714 0.632-1.9 0.556-2.528-0.158-0.315-0.361-0.474-0.824-0.443-1.305 0.029-0.48 0.242-0.92 0.602-1.239 0.327-0.29 0.748-0.451 1.183-0.451 0.514 0 1.003 0.222 1.343 0.61 0.316 0.36 0.475 0.822 0.445 1.303s-0.245 0.921-0.602 1.24z"></path>
</symbol>
<symbol id="icon-settings" viewBox="0 0 32 32">
<path d="M31.673 12.608c-0.087-0.328-0.375-0.581-0.724-0.63l-2.902-0.377-0.419-1.007 1.789-2.328c0.211-0.276 0.233-0.661 0.070-0.932-0.005-0.011-0.662-1.134-2.178-2.647-1.43-1.432-2.565-2.141-2.609-2.155-0.298-0.185-0.704-0.158-0.97 0.051l-2.323 1.785-1.010-0.422-0.379-2.904c-0.046-0.338-0.287-0.616-0.64-0.718-0.227-0.054-1.451-0.322-3.38-0.322-2.060 0-3.334 0.312-3.388 0.325-0.33 0.084-0.585 0.371-0.634 0.722l-0.376 2.907-1.008 0.415-2.319-1.783c-0.272-0.214-0.655-0.249-0.978-0.053-0.198 0.122-1.26 0.804-2.609 2.155-1.432 1.43-2.092 2.503-2.165 2.623-0.177 0.303-0.154 0.678 0.062 0.959l1.805 2.347-0.44 0.983-2.909 0.378c-0.335 0.046-0.613 0.287-0.716 0.644-0.075 0.325-0.322 1.525-0.323 3.376 0 1.885 0.249 3.064 0.328 3.396 0.087 0.324 0.37 0.574 0.715 0.623l2.908 0.381 0.417 1.008-1.784 2.324c-0.214 0.279-0.237 0.654-0.062 0.957 0.007 0.010 0.666 1.125 2.165 2.623 1.453 1.455 2.57 2.131 2.626 2.166 0.309 0.178 0.697 0.143 0.954-0.062l2.325-1.785 1.007 0.416 0.381 2.92c0.050 0.332 0.29 0.609 0.643 0.711 0.323 0.076 1.519 0.322 3.378 0.322 1.93 0 3.154-0.27 3.403-0.33 0.326-0.092 0.568-0.371 0.618-0.717l0.378-2.906 1.010-0.416 2.316 1.781c0.274 0.215 0.66 0.24 0.962 0.066 0.011-0.008 1.141-0.68 2.624-2.166 1.312-1.309 1.981-2.324 2.17-2.629 0.173-0.299 0.148-0.672-0.064-0.949l-1.785-2.326 0.418-1.008 2.906-0.381c0.341-0.045 0.621-0.289 0.721-0.643 0.053-0.226 0.321-1.45 0.322-3.376-0.002-1.923-0.271-3.15-0.327-3.392zM26.604 19.344c-0.14 0.412-0.564 1.43-0.742 1.789-0.144 0.287-0.108 0.643 0.091 0.908l1.728 2.246-0.174 0.225c-0.389 0.51-0.875 1.059-1.404 1.588-0.531 0.531-1.067 1.006-1.591 1.408l-0.225 0.174-2.247-1.727c-0.146-0.113-0.321-0.176-0.509-0.18l-0.135-0.004c0 0-1.705 0.715-2.054 0.834-0.311 0.105-0.535 0.383-0.574 0.699l-0.368 2.814-0.28 0.037c-0.443 0.059-1.17 0.129-2.119 0.129-0.94 0-1.671-0.070-2.118-0.129l-0.283-0.037-0.367-2.807c-0.040-0.324-0.264-0.6-0.571-0.705-0.418-0.145-1.558-0.629-1.807-0.752-0.283-0.133-0.634-0.098-0.896 0.098l-2.245 1.73-0.227-0.172c-0.524-0.404-1.059-0.879-1.589-1.408s-1.004-1.064-1.408-1.59l-0.174-0.223 1.734-2.256c0.194-0.26 0.229-0.613 0.087-0.895-0.178-0.363-0.635-1.475-0.744-1.795-0.105-0.316-0.377-0.537-0.7-0.576l-2.815-0.367-0.035-0.283c-0.084-0.668-0.128-1.379-0.128-2.117 0-0.753 0.045-1.465 0.13-2.118l0.037-0.282 2.812-0.368c0.322-0.043 0.597-0.268 0.699-0.572 0.154-0.454 0.577-1.458 0.735-1.781 0.153-0.297 0.121-0.647-0.083-0.916l-1.728-2.25 0.176-0.226c0.406-0.528 0.88-1.062 1.406-1.589 0.518-0.518 1.052-0.99 1.588-1.404l0.226-0.175 2.239 1.722c0.251 0.201 0.607 0.248 0.922 0.095 0.348-0.174 1.293-0.574 1.782-0.741 0.316-0.105 0.535-0.377 0.574-0.699l0.368-2.814 0.282-0.037c0.446-0.058 1.175-0.128 2.118-0.128s1.672 0.070 2.117 0.128l0.283 0.037 0.367 2.809c0.040 0.331 0.26 0.602 0.571 0.705 0.428 0.146 1.442 0.57 1.788 0.74 0.273 0.144 0.63 0.121 0.912-0.087l2.248-1.729 0.226 0.174c0.521 0.401 1.056 0.875 1.588 1.406 0.529 0.53 1.003 1.065 1.406 1.591l0.174 0.224-1.731 2.252c-0.197 0.261-0.231 0.616-0.087 0.9 0.188 0.379 0.62 1.433 0.744 1.791 0.103 0.308 0.377 0.532 0.698 0.575l2.813 0.368 0.038 0.28c0.058 0.444 0.129 1.172 0.129 2.12s-0.071 1.676-0.129 2.119l-0.035 0.28-2.809 0.367c-0.33 0.042-0.601 0.262-0.705 0.577z"></path>
<path d="M15.999 7.907c-4.463 0-8.093 3.63-8.093 8.093 0 4.465 3.63 8.096 8.093 8.096 4.464 0 8.094-3.631 8.094-8.096 0-4.463-3.63-8.093-8.094-8.093zM15.999 22.395c-3.523 0-6.391-2.869-6.391-6.395s2.867-6.393 6.391-6.393c3.525 0 6.395 2.868 6.395 6.393s-2.87 6.395-6.395 6.395z"></path>
</symbol>
<symbol id="icon-help" viewBox="0 0 32 32">
<path d="M16 0c-8.837 0-16 7.163-16 16 0 8.836 7.163 16 16 16s16-7.164 16-16c0-8.837-7.163-16-16-16zM23.728 13.2l5.334-2.977c0.785 1.768 1.23 3.72 1.23 5.776 0 2.139-0.486 4.16-1.332 5.984l-5.242-2.924c0.357-0.914 0.558-1.906 0.558-2.946-0.001-1.026-0.2-2.007-0.548-2.913zM28.27 8.709l-5.319 2.969c-0.611-0.937-1.418-1.729-2.351-2.346l3.016-5.404c1.903 1.204 3.498 2.844 4.654 4.781zM22.567 16.115c0 3.543-2.884 6.428-6.428 6.428-3.542 0-6.425-2.885-6.425-6.428s2.883-6.427 6.425-6.427c3.545 0 6.428 2.883 6.428 6.427zM22.117 3.103l-3.031 5.433c-0.914-0.357-1.907-0.558-2.946-0.558-1.031 0-2.014 0.2-2.923 0.552l-3.094-5.544c1.795-0.814 3.781-1.278 5.877-1.278 2.19 0 4.26 0.511 6.117 1.395zM8.613 3.789l3.082 5.519c-0.937 0.614-1.728 1.422-2.344 2.356l-5.538-3.092c1.195-1.953 2.842-3.594 4.8-4.783zM3.007 10.081l5.552 3.098c-0.355 0.912-0.555 1.9-0.555 2.936 0 1.032 0.198 2.018 0.552 2.928l-5.464 3.049c-0.878-1.852-1.384-3.912-1.384-6.092 0-2.113 0.472-4.112 1.299-5.919zM3.913 23.59l5.433-3.033c0.614 0.936 1.403 1.742 2.337 2.357l-2.985 5.348c-1.941-1.16-3.581-2.762-4.785-4.672zM10.213 29.055l2.991-5.359c0.912 0.354 1.899 0.557 2.936 0.557 1.029 0 2.013-0.201 2.919-0.551l2.934 5.256c-1.826 0.848-3.851 1.334-5.992 1.334-2.062-0.001-4.018-0.448-5.788-1.237zM23.495 28.145l-2.913-5.221c0.935-0.611 1.725-1.418 2.34-2.35l5.226 2.916c-1.17 1.889-2.764 3.485-4.653 4.655z"></path>
</symbol>
<symbol id="icon-board" viewBox="0 0 32 32">
<path d="M30.075 8.964c0.933 0 1.925-0.675 1.925-1.925v-5.114c0-0.933-0.675-1.925-1.925-1.925h-28.15c-0.933 0-1.925 0.675-1.925 1.925v5.114c0 0.933 0.675 1.925 1.925 1.925h28.15zM1.93 1.685h28.146c0.116 0 0.236 0 0.24 0.24v5.114c0 0.1 0 0.236-0.242 0.24h-28.149c-0.116 0-0.236 0-0.24-0.24v-5.114c0-0.115 0-0.236 0.245-0.24z"></path>
<path d="M7.021 20.482c0.933 0 1.925-0.676 1.925-1.926v-5.113c0-0.934-0.675-1.926-1.925-1.926h-5.096c-0.933 0.001-1.925 0.676-1.925 1.926v5.113c0 0.934 0.675 1.926 1.925 1.926h5.096zM1.93 13.203h5.091c0.116 0 0.236 0 0.24 0.24v5.113c0 0.1 0 0.236-0.242 0.24h-5.094c-0.116 0-0.236 0-0.24-0.24v-5.113c0-0.115 0-0.236 0.245-0.24z"></path>
<path d="M30.075 32c0.933 0 1.925-0.676 1.925-1.926v-5.113c0-0.934-0.675-1.926-1.925-1.926h-5.096c-0.933 0-1.925 0.676-1.925 1.926v5.113c0 0.934 0.675 1.926 1.925 1.926h5.096zM24.984 24.721h5.091c0.116 0 0.236 0 0.24 0.24v5.113c0 0.1 0 0.236-0.242 0.24h-5.094c-0.116 0-0.236 0-0.24-0.24v-5.113c0-0.115 0-0.236 0.245-0.24z"></path>
<path d="M30.075 20.482c0.933 0 1.925-0.676 1.925-1.926v-5.113c0-0.934-0.675-1.926-1.925-1.926h-17.15c-0.933 0-1.925 0.676-1.925 1.926v5.113c0 0.934 0.675 1.926 1.925 1.926h17.15zM12.93 13.203h17.146c0.116 0 0.236 0 0.24 0.24v5.113c0 0.1 0 0.236-0.242 0.24h-17.149c-0.116 0-0.236 0-0.24-0.24v-5.113c0-0.115 0-0.236 0.245-0.24z"></path>
<path d="M19.075 32c0.933 0 1.925-0.675 1.925-1.925v-5.114c0-0.933-0.675-1.925-1.925-1.925h-17.15c-0.933 0-1.925 0.675-1.925 1.925v5.114c0 0.933 0.675 1.925 1.925 1.925h17.15zM1.93 24.721h17.146c0.116 0 0.236 0 0.24 0.24v5.114c0 0.1 0 0.236-0.242 0.24h-17.149c-0.116 0-0.236 0-0.24-0.24v-5.114c0-0.115 0-0.235 0.245-0.24z"></path>
</symbol>
<symbol id="icon-wifisync" viewBox="0 0 32 32">
<path stroke-linejoin="round" stroke-linecap="round" stroke-miterlimit="4" stroke-width="2.6667" d="M8.841 15.151c1.165-1.166 2.746-1.82 4.395-1.818 0.325 0 0.649 0.025 0.969 0.075"></path>
<path stroke-linejoin="round" stroke-linecap="round" stroke-miterlimit="4" stroke-width="2.6667" d="M5.416 11.048c4.184-3.846 10.544-4.079 14.999-0.549"></path>
<path stroke-linejoin="round" stroke-linecap="round" stroke-miterlimit="4" stroke-width="2.6667" d="M2.667 6.382c6.181-4.96 14.979-4.957 21.156 0.008"></path>
<path stroke-linejoin="round" stroke-linecap="round" stroke-miterlimit="4" stroke-width="2.6667" d="M19.556 24h-4.444v4.444"></path>
<path stroke-linejoin="round" stroke-linecap="round" stroke-miterlimit="4" stroke-width="2.6667" d="M28.642 24.869c-0.968 2.829-3.715 4.654-6.698 4.45s-5.456-2.385-6.031-5.319"></path>
<path stroke-linejoin="round" stroke-linecap="round" stroke-miterlimit="4" stroke-width="2.6667" d="M24.889 20.444h4.444v-4.444"></path>
<path stroke-linejoin="round" stroke-linecap="round" stroke-miterlimit="4" stroke-width="2.6667" d="M15.802 19.576c0.968-2.829 3.715-4.654 6.698-4.45s5.456 2.385 6.031 5.319"></path>
</symbol>
<symbol id="icon-wifi" viewBox="0 0 32 32">
<path fill="none" stroke="#4a4a4a" style="stroke: var(--color1, #4a4a4a)" stroke-linejoin="round" stroke-linecap="round" stroke-miterlimit="4" stroke-width="2.4" d="M19.667 23.726c0 1.819-1.522 3.294-3.4 3.294s-3.4-1.475-3.4-3.294c0-1.819 1.522-3.294 3.4-3.294s3.4 1.475 3.4 3.294z"></path>
<path fill="none" stroke="#4a4a4a" style="stroke: var(--color1, #4a4a4a)" stroke-linejoin="round" stroke-linecap="round" stroke-miterlimit="4" stroke-width="2.4" d="M22.273 17.903c-3.319-3.216-8.701-3.216-12.020 0"></path>
<path fill="none" stroke="#4a4a4a" style="stroke: var(--color1, #4a4a4a)" stroke-linejoin="round" stroke-linecap="round" stroke-miterlimit="4" stroke-width="2.4" d="M25.883 14.409c-5.311-5.145-13.922-5.145-19.233 0"></path>
<path fill="none" stroke="#4a4a4a" style="stroke: var(--color1, #4a4a4a)" stroke-linejoin="round" stroke-linecap="round" stroke-miterlimit="4" stroke-width="2.4" d="M29.017 10.473c-7.182-6.486-18.318-6.486-25.5 0"></path>
</symbol>
<symbol id="icon-triangle" viewBox="0 0 41 32">
<path d="M23.7 2.933l16 21.333c1.325 1.767 0.967 4.275-0.8 5.6-0.692 0.519-1.535 0.8-2.4 0.8h-32c-2.209 0-4-1.791-4-4 0-0.865 0.281-1.708 0.8-2.4l16-21.333c1.325-1.767 3.833-2.125 5.6-0.8 0.303 0.227 0.573 0.497 0.8 0.8z"></path>
</symbol>
<symbol id="icon-triangle-inverted" viewBox="0 0 40 32">
<path d="M16.8 27.733l-16-21.333c-1.325-1.767-0.967-4.275 0.8-5.6 0.692-0.519 1.535-0.8 2.4-0.8h32c2.209 0 4 1.791 4 4 0 0.865-0.281 1.708-0.8 2.4l-16 21.333c-1.325 1.767-3.833 2.125-5.6 0.8-0.303-0.227-0.573-0.497-0.8-0.8z"></path>
</symbol>
<symbol id="icon-plus" viewBox="0 0 32 32">
<path stroke-linejoin="round" stroke-linecap="round" stroke-miterlimit="4" stroke-width="2.4" d="M27.98 16.080c0.001 4.813-2.898 9.152-7.344 10.993s-9.564 0.824-12.967-2.579c-3.403-3.403-4.421-8.521-2.579-12.967s6.181-7.345 10.993-7.344c6.57 0.001 11.896 5.327 11.897 11.897z"></path>
<path stroke-linejoin="round" stroke-linecap="round" stroke-miterlimit="4" stroke-width="2.4" d="M10.092 15.999h11.815"></path>
<path stroke-linejoin="round" stroke-linecap="round" stroke-miterlimit="4" stroke-width="2.4" d="M16 21.906v-11.815"></path>
</symbol>
<symbol id="icon-move" viewBox="0 0 32 32">
<path d="M16 19.235c-1.793 0-3.246-1.455-3.246-3.249s1.453-3.249 3.246-3.249c1.793 0 3.246 1.455 3.246 3.249s-1.453 3.249-3.246 3.249zM17.039 0.908l3.896 5.199c0.295 0.394 0.343 0.921 0.123 1.361s-0.67 0.719-1.161 0.719h-7.791c-0.492 0-0.941-0.278-1.161-0.718s-0.172-0.967 0.123-1.361l3.896-5.199c0.256-0.311 0.637-0.491 1.039-0.491s0.783 0.18 1.039 0.491zM7.491 10.923c0.44 0.22 0.718 0.671 0.718 1.163v7.799c0 0.492-0.278 0.942-0.718 1.163s-0.966 0.173-1.36-0.123l-5.194-3.899c-0.327-0.245-0.519-0.631-0.519-1.040s0.192-0.794 0.519-1.040l5.194-3.899c0.393-0.296 0.92-0.343 1.36-0.123zM19.896 23.784c0.492 0 0.942 0.278 1.161 0.718s0.172 0.967-0.123 1.361l-3.896 5.199c-0.245 0.327-0.63 0.52-1.039 0.52s-0.794-0.193-1.039-0.52l-3.896-5.199c-0.295-0.394-0.343-0.921-0.123-1.361s0.67-0.718 1.161-0.718h7.791zM31.063 14.946c0.327 0.245 0.519 0.631 0.519 1.040s-0.192 0.794-0.519 1.040l-5.194 3.899c-0.393 0.295-0.92 0.343-1.36 0.123s-0.718-0.67-0.718-1.163v-7.799c0-0.492 0.278-0.942 0.718-1.163s0.966-0.173 1.36 0.123l5.194 3.899z"></path>
</symbol>
<symbol id="icon-minus" viewBox="0 0 32 32">
<path stroke-linejoin="round" stroke-linecap="round" stroke-miterlimit="4" stroke-width="2.4" d="M27.98 16.080c0.001 4.812-2.898 9.151-7.344 10.993s-9.564 0.824-12.967-2.578c-3.403-3.403-4.421-8.52-2.58-12.967s6.18-7.345 10.993-7.345c6.571 0 11.897 5.326 11.898 11.897z"></path>
<path stroke-linejoin="round" stroke-linecap="round" stroke-miterlimit="4" stroke-width="2.4" d="M10.092 15.999h11.815"></path>
</symbol>
<symbol id="icon-lock" viewBox="0 0 25 32">
<path stroke-linejoin="round" stroke-linecap="round" stroke-miterlimit="4" stroke-width="2.6667" d="M5.333 13.333h14.222c1.473 0 2.667 1.194 2.667 2.667v10.667c0 1.473-1.194 2.667-2.667 2.667h-14.222c-1.473 0-2.667-1.194-2.667-2.667v-10.667c0-1.473 1.194-2.667 2.667-2.667z"></path>
<path stroke-linejoin="round" stroke-linecap="round" stroke-miterlimit="4" stroke-width="2.6667" d="M6.222 13.333v-4.444c0-3.436 2.786-6.222 6.222-6.222s6.222 2.786 6.222 6.222v4.444"></path>
<path stroke-linejoin="round" stroke-linecap="round" stroke-miterlimit="4" stroke-width="2.6667" d="M12.276 24.889c0.245 0 0.444 0.199 0.444 0.444s-0.199 0.444-0.444 0.444c-0.245 0-0.444-0.199-0.444-0.444s0.199-0.444 0.444-0.444"></path>
</symbol>
<symbol id="icon-lan" viewBox="0 0 32 32">
<path stroke-linejoin="round" stroke-linecap="round" stroke-miterlimit="4" stroke-width="2.4" d="M7.3 2.5h17.4c2.651 0 4.8 2.149 4.8 4.8v17.4c0 2.651-2.149 4.8-4.8 4.8h-17.4c-2.651 0-4.8-2.149-4.8-4.8v-17.4c0-2.651 2.149-4.8 4.8-4.8z"></path>
<path stroke-linejoin="round" stroke-linecap="round" stroke-miterlimit="4" stroke-width="2.4" d="M23.2 8.8h-14.4c-0.994 0-1.8 0.806-1.8 1.8v7.2c0 0.994 0.806 1.8 1.8 1.8h3.6v1.8c0 0.994 0.806 1.8 1.8 1.8h3.6c0.994 0 1.8-0.806 1.8-1.8v-1.8h3.6c0.994 0 1.8-0.806 1.8-1.8v-7.2c0-0.994-0.806-1.8-1.8-1.8z"></path>
<path stroke-linejoin="round" stroke-linecap="round" stroke-miterlimit="4" stroke-width="2.4" d="M16 8.8v4.5"></path>
<path stroke-linejoin="round" stroke-linecap="round" stroke-miterlimit="4" stroke-width="2.4" d="M11.5 8.8v4.5"></path>
<path stroke-linejoin="round" stroke-linecap="round" stroke-miterlimit="4" stroke-width="2.4" d="M20.5 8.8v4.5"></path>
</symbol>
<symbol id="icon-ios-sharesheet" viewBox="0 0 32 32">
<path stroke-linejoin="miter" stroke-linecap="butt" stroke-miterlimit="4" stroke-width="2.1333" d="M7.467 11.733h17.067v14.933h-17.067v-14.933z"></path>
<path d="M12.8 10.667h6.4v8.533h-6.4v-8.533z"></path>
<path stroke-linejoin="miter" stroke-linecap="square" stroke-miterlimit="4" stroke-width="2.1333" d="M16 6.4v11.733"></path>
<path stroke-linejoin="round" stroke-linecap="butt" stroke-miterlimit="4" stroke-width="2.1333" d="M16 4.267l3.2 4.267h-6.4z"></path>
</symbol>
<symbol id="icon-home" viewBox="0 0 38 32">
<path stroke-linejoin="miter" stroke-linecap="butt" stroke-miterlimit="4" stroke-width="1" d="M36.556 18.778l-6.667-6.667v-10h-4.444v5.556l-6.667-6.667-17.778 17.778v1.111h4.444v11.111h11.111v-6.667h4.444v6.667h11.111v-11.111h4.444z"></path>
</symbol>
<symbol id="icon-eye" viewBox="0 0 53 32">
<path stroke-linejoin="round" stroke-linecap="round" stroke-miterlimit="4" stroke-width="4" d="M26.667 2.502c-8.062-0.136-16.4 5.498-21.642 11.268-1.14 1.265-1.14 3.187 0 4.452 5.128 5.648 13.442 11.412 21.642 11.274 8.2 0.138 16.516-5.626 21.648-11.274 1.14-1.265 1.14-3.187 0-4.452-5.248-5.77-13.586-11.404-21.648-11.268z"></path>
<path stroke-linejoin="round" stroke-linecap="round" stroke-miterlimit="4" stroke-width="4" d="M34.167 16c-0.001 4.142-3.359 7.499-7.501 7.498s-7.499-3.359-7.499-7.501c0-4.142 3.358-7.499 7.5-7.499 1.99-0.001 3.898 0.79 5.305 2.197s2.196 3.316 2.195 5.305z"></path>
</symbol>
<symbol id="icon-eye-crossed" viewBox="0 0 53 32">
<path stroke-linejoin="round" stroke-linecap="round" stroke-miterlimit="4" stroke-width="4" d="M26.669 3.599c-7.627-0.129-15.514 5.201-20.473 10.659-1.078 1.197-1.078 3.015 0 4.212 4.851 5.343 12.716 10.796 20.473 10.665 7.757 0.131 15.624-5.322 20.479-10.665 1.078-1.197 1.078-3.015 0-4.212-4.965-5.458-12.852-10.788-20.479-10.659z"></path>
<path stroke-linejoin="round" stroke-linecap="round" stroke-miterlimit="4" stroke-width="4" d="M26.668 23.461c-3.918-0.001-7.094-3.177-7.094-7.096s3.177-7.094 7.095-7.094c1.882-0.001 3.687 0.747 5.018 2.078s2.078 3.136 2.077 5.019c-0.001 3.918-3.178 7.094-7.096 7.093z"></path>
<path d="M14.381 28.656l25.794-25.794z"></path>
<path stroke-linejoin="miter" stroke-linecap="square" stroke-miterlimit="4" stroke-width="2.6667" d="M14.381 28.656l25.794-25.794"></path>
</symbol>
<symbol id="icon-arrow-back" viewBox="0 0 20 32">
<path d="M0 15.962c-0.001-0.882 0.377-1.722 1.038-2.305l14.839-13.081c1.023-0.86 2.543-0.744 3.425 0.26s0.802 2.53-0.18 3.437l-12.976 11.438c-0.072 0.063-0.113 0.155-0.113 0.251s0.041 0.187 0.113 0.251l12.976 11.438c0.683 0.574 1.002 1.474 0.834 2.352s-0.798 1.594-1.645 1.874c-0.847 0.279-1.778 0.077-2.434-0.528l-14.834-13.077c-0.662-0.584-1.042-1.425-1.043-2.309z"></path>
</symbol>
<symbol id="icon-add" viewBox="0 0 32 32">
<path fill="none" stroke="currentColor" stroke-linejoin="round" stroke-linecap="round" stroke-miterlimit="4" stroke-width="2.4" d="M16 11.2v9.6"></path>
<path fill="none" stroke="currentColor" stroke-linejoin="round" stroke-linecap="round" stroke-miterlimit="4" stroke-width="2.4" d="M11.2 16h9.6"></path>
<path fill="none" stroke="currentColor"  stroke-linejoin="round" stroke-linecap="round" stroke-miterlimit="4" stroke-width="2.4" d="M8.8 4h14.4c2.651 0 4.8 2.149 4.8 4.8v14.4c0 2.651-2.149 4.8-4.8 4.8h-14.4c-2.651 0-4.8-2.149-4.8-4.8v-14.4c0-2.651 2.149-4.8 4.8-4.8z"></path>
</symbol>
<symbol id="icon-activate" viewBox="0 0 32 32">
<path d="M22.536 11.733h-3.879c-0.143 0-0.275-0.079-0.342-0.205s-0.060-0.28 0.020-0.399l3.047-4.571c0.237-0.357 0.259-0.815 0.057-1.193s-0.595-0.614-1.023-0.615h-5.778c-0.588-0.001-1.125 0.331-1.389 0.856v0l-4.937 9.875c-0.178 0.36-0.159 0.786 0.052 1.128s0.583 0.551 0.984 0.553h2.42c0.125 0 0.242 0.060 0.314 0.161s0.093 0.231 0.053 0.349l-2.594 7.778c-0.116 0.342 0.020 0.719 0.327 0.909s0.705 0.142 0.959-0.114l12.527-12.527c0.33-0.333 0.429-0.832 0.25-1.265s-0.6-0.718-1.069-0.721z"></path>
</symbol>
</defs>
</svg>
