<?xml version="1.0" encoding="utf-8"?>
<!-- Generator: Adobe Illustrator 15.1.0, SVG Export Plug-In . SVG Version: 6.00 Build 0)  -->
<!DOCTYPE svg PUBLIC "-//W3C//DTD SVG 1.1//EN" "http://www.w3.org/Graphics/SVG/1.1/DTD/svg11.dtd">
<svg version="1.1" id="Ebene_1" xmlns="http://www.w3.org/2000/svg" xmlns:xlink="http://www.w3.org/1999/xlink" x="0px" y="0px"
	 width="32px" height="32px" viewBox="0 0 32 32" enable-background="new 0 0 32 32" xml:space="preserve">
<path d="M16,0C7.163,0,0,7.163,0,16c0,8.836,7.163,16,16,16c8.837,0,16-7.164,16-16C32,7.163,24.837,0,16,0z M23.728,13.2
	l5.334-2.977c0.785,1.768,1.23,3.72,1.23,5.776c0,2.139-0.486,4.16-1.332,5.984l-5.242-2.924c0.357-0.914,0.558-1.906,0.558-2.946
	C24.275,15.087,24.076,14.106,23.728,13.2z M28.27,8.709l-5.319,2.969c-0.611-0.937-1.418-1.729-2.351-2.346l3.016-5.404
	C25.519,5.132,27.114,6.772,28.27,8.709z M22.567,16.115c0,3.543-2.884,6.428-6.428,6.428c-3.542,0-6.425-2.885-6.425-6.428
	c0-3.544,2.883-6.427,6.425-6.427C19.684,9.688,22.567,12.571,22.567,16.115z M22.117,3.103l-3.031,5.433
	c-0.914-0.357-1.907-0.558-2.946-0.558c-1.031,0-2.014,0.2-2.923,0.552l-3.094-5.544C11.918,2.172,13.904,1.708,16,1.708
	C18.19,1.708,20.26,2.219,22.117,3.103z M8.613,3.789l3.082,5.519c-0.937,0.614-1.728,1.422-2.344,2.356L3.813,8.572
	C5.008,6.619,6.655,4.978,8.613,3.789z M3.007,10.081l5.552,3.098c-0.355,0.912-0.555,1.9-0.555,2.936
	c0,1.032,0.198,2.018,0.552,2.928l-5.464,3.049C2.214,20.24,1.708,18.18,1.708,16C1.708,13.887,2.18,11.888,3.007,10.081z
	 M3.913,23.59l5.433-3.033c0.614,0.936,1.403,1.742,2.337,2.357l-2.985,5.348C6.757,27.102,5.117,25.5,3.913,23.59z M10.213,29.055
	l2.991-5.359c0.912,0.354,1.899,0.557,2.936,0.557c1.029,0,2.013-0.201,2.919-0.551l2.934,5.256
	c-1.826,0.848-3.851,1.334-5.992,1.334C13.939,30.291,11.983,29.844,10.213,29.055z M23.495,28.145l-2.913-5.221
	c0.935-0.611,1.725-1.418,2.34-2.35l5.226,2.916C26.978,25.379,25.384,26.975,23.495,28.145z"/>
</svg>
