<?xml version="1.0" encoding="utf-8"?>
<!-- Generator: Adobe Illustrator 15.1.0, SVG Export Plug-In . SVG Version: 6.00 Build 0)  -->
<!DOCTYPE svg PUBLIC "-//W3C//DTD SVG 1.1//EN" "http://www.w3.org/Graphics/SVG/1.1/DTD/svg11.dtd">
<svg version="1.1" id="Ebene_1" xmlns="http://www.w3.org/2000/svg" xmlns:xlink="http://www.w3.org/1999/xlink" x="0px" y="0px"
	 width="32px" height="32px" viewBox="0 0 32 32" enable-background="new 0 0 32 32" xml:space="preserve">
<path d="M31.131,1.902c-0.659-0.753-1.61-1.185-2.61-1.185c-0.848,0-1.666,0.312-2.302,0.877c-0.697,0.62-1.112,1.475-1.171,2.409
	c-0.035,0.572,0.081,1.126,0.308,1.636l-6.246,4.923c-0.895-0.787-2.08-1.242-3.343-1.167c-1.01,0.059-1.944,0.449-2.708,1.089
	l-4.35-3.674c1.129-2.033,0.625-4.64-1.285-6.055C6.617,0.159,5.664-0.157,4.665-0.157c-1.477,0-2.881,0.714-3.757,1.91
	C0.17,2.762-0.133,4,0.054,5.238S0.897,7.568,1.9,8.311c0.806,0.597,1.76,0.912,2.759,0.912c1.098,0,2.154-0.396,2.983-1.089
	l4.324,3.652c-0.44,0.78-0.655,1.67-0.602,2.586c0.021,0.354,0.088,0.694,0.183,1.022l-2.576,1.265
	c-0.644-0.764-1.593-1.223-2.61-1.223c-0.585,0-1.167,0.154-1.68,0.444c-1.646,0.933-2.233,3.041-1.306,4.699
	c0.606,1.085,1.752,1.759,2.991,1.759c0.585,0,1.165-0.153,1.678-0.443c1.33-0.754,1.952-2.271,1.661-3.702l2.592-1.272
	c0.443,0.594,1.027,1.064,1.693,1.394l-1.476,4.837c-0.177-0.022-0.354-0.034-0.53-0.034c-2.007,0-3.739,1.372-4.21,3.337
	c-0.273,1.133-0.092,2.304,0.51,3.3c0.603,0.997,1.555,1.695,2.681,1.97c0.337,0.082,0.682,0.123,1.025,0.123
	c2.007,0,3.739-1.371,4.213-3.336c0.273-1.133,0.091-2.304-0.512-3.299c-0.392-0.646-0.939-1.15-1.576-1.512l1.504-4.932
	c0.139,0.014,0.273,0.041,0.415,0.041c0.091,0,0.184-0.002,0.275-0.008c0.706-0.041,1.371-0.252,1.973-0.585l2.865,3.478
	c-0.35,0.501-0.552,1.092-0.573,1.719c-0.03,0.855,0.273,1.672,0.853,2.295c0.6,0.647,1.447,1.02,2.327,1.02
	c0.807,0,1.576-0.306,2.17-0.861c0.62-0.582,0.979-1.373,1.009-2.227c0.031-0.855-0.272-1.672-0.852-2.296
	c-0.906-0.983-2.41-1.222-3.614-0.713l-2.87-3.485c0.785-0.927,1.186-2.1,1.114-3.319c-0.039-0.697-0.242-1.346-0.554-1.928
	l6.238-4.915c0.604,0.472,1.35,0.742,2.129,0.742c0.85,0,1.667-0.312,2.305-0.878c0.695-0.62,1.111-1.475,1.168-2.409
	C32.054,3.503,31.746,2.603,31.131,1.902z M7.214,20.41c-0.811,0.463-1.914,0.143-2.365-0.665c-0.469-0.841-0.172-1.909,0.662-2.382
	c0.261-0.147,0.555-0.227,0.851-0.227c0.629,0,1.209,0.343,1.517,0.894C8.347,18.87,8.048,19.938,7.214,20.41z M14.559,28.108
	c-0.339,1.404-1.79,2.301-3.196,1.96c-0.687-0.166-1.267-0.594-1.635-1.201c-0.367-0.607-0.478-1.322-0.311-2.014
	c0.288-1.198,1.344-2.035,2.567-2.035c0.209,0,0.42,0.025,0.627,0.076c0.687,0.168,1.268,0.594,1.636,1.201
	C14.614,26.703,14.725,27.418,14.559,28.108z M4.659,7.521c-0.635,0-1.243-0.201-1.756-0.581C2.264,6.466,1.846,5.771,1.726,4.982
	C1.607,4.193,1.8,3.404,2.271,2.762C2.828,2,3.724,1.545,4.665,1.545c0.635,0,1.242,0.202,1.755,0.581
	c1.317,0.976,1.601,2.85,0.631,4.178C6.486,7.078,5.615,7.521,4.659,7.521z M16.21,17.102c-1.652,0.12-3.063-1.181-3.157-2.829
	c-0.046-0.802,0.221-1.574,0.751-2.174c0.531-0.6,1.263-0.957,2.061-1.003c0.059-0.004,0.119-0.005,0.177-0.005
	c1.58,0,2.889,1.245,2.98,2.834c0.047,0.801-0.22,1.574-0.751,2.174C17.739,16.699,17.008,17.057,16.21,17.102z M24.844,22.504
	c0.271,0.291,0.412,0.673,0.398,1.074c-0.015,0.399-0.183,0.77-0.473,1.043c-0.585,0.547-1.562,0.512-2.106-0.074
	c-0.272-0.293-0.414-0.675-0.399-1.074c0.014-0.4,0.181-0.771,0.471-1.043c0.279-0.261,0.642-0.404,1.02-0.404
	C24.172,22.025,24.559,22.194,24.844,22.504z M29.708,5.572c-0.714,0.632-1.9,0.556-2.528-0.158
	c-0.315-0.361-0.474-0.824-0.443-1.305c0.029-0.48,0.242-0.92,0.602-1.239c0.327-0.29,0.748-0.451,1.183-0.451
	c0.514,0,1.003,0.222,1.343,0.61c0.316,0.36,0.475,0.822,0.445,1.303C30.279,4.813,30.065,5.253,29.708,5.572z"/>
</svg>
