<?xml version="1.0" encoding="utf-8"?>
<!-- Generator: Adobe Illustrator 15.1.0, SVG Export Plug-In . SVG Version: 6.00 Build 0)  -->
<!DOCTYPE svg PUBLIC "-//W3C//DTD SVG 1.1//EN" "http://www.w3.org/Graphics/SVG/1.1/DTD/svg11.dtd">
<svg version="1.1" id="Ebene_1" xmlns="http://www.w3.org/2000/svg" xmlns:xlink="http://www.w3.org/1999/xlink" x="0px" y="0px"
	 width="32px" height="32px" viewBox="0 0 32 32" enable-background="new 0 0 32 32" xml:space="preserve">
<g>
	<path d="M29.023,23.497h-3.478v-3.501c0-0.553-0.447-1.003-0.997-1.003s-0.996,0.45-0.996,1.003v3.501h-3.478
		c-0.55,0-0.997,0.449-0.997,1.003c0,0.553,0.447,1.003,0.997,1.003h3.478v3.501c0,0.553,0.446,1.003,0.996,1.003
		s0.997-0.45,0.997-1.003v-3.501h3.478c0.55,0,0.996-0.45,0.996-1.003C30.02,23.946,29.573,23.497,29.023,23.497z"/>
	<path d="M11.478,32H3.423C0.912,32,0,29.909,0,28.503v-8.007C0,17.931,2.047,17,3.423,17h8.055c2.512,0,3.424,2.091,3.424,3.496
		v8.007C14.902,31.068,12.854,32,11.478,32z M3.423,18.68c-0.413,0.007-1.779,0.156-1.779,1.816v8.007
		c0.007,0.422,0.153,1.817,1.779,1.817h8.052c0.302-0.005,1.783-0.117,1.783-1.817v-8.007c-0.008-0.422-0.153-1.816-1.78-1.816
		H3.423z"/>
	<path d="M11.478,15H3.423C0.912,15,0,12.909,0,11.503V3.496C0,0.931,2.047,0,3.423,0h8.055c2.512,0,3.424,2.091,3.424,3.496v8.007
		C14.902,14.068,12.854,15,11.478,15z M3.423,1.68C3.01,1.687,1.644,1.836,1.644,3.496v8.007c0.007,0.422,0.153,1.817,1.779,1.817
		h8.052c0.302-0.005,1.783-0.117,1.783-1.817V3.496c-0.008-0.422-0.153-1.816-1.78-1.816H3.423z"/>
	<path d="M28.577,15h-8.057c-2.51,0-3.422-2.091-3.422-3.497V3.496C17.099,0.931,19.145,0,20.521,0h8.057
		C31.088,0,32,2.091,32,3.496v8.007C32,14.068,29.953,15,28.577,15z M20.521,1.68c-0.411,0.007-1.779,0.156-1.779,1.816v8.007
		c0.008,0.422,0.153,1.817,1.779,1.817h8.053c0.302-0.005,1.784-0.117,1.784-1.817V3.496c-0.009-0.422-0.154-1.816-1.78-1.816
		H20.521z"/>
</g>
</svg>
